N°,EMPRESA,COMERCIAL,EMPRESA COD,,,
1,4 LIFE,1,10329,,,
2,ACR PROYECTOS S.A,1,11682,,,
3,Aerogerpsa,1,27631,,,
4,AFIATIC COMUNICACIONES,1,11827,,,
5,Agroeden,1,27997,,,
6,AGROQUIM,1,019,,,
7,ALEM,1,27260,,,
8,Aliada 2000 Seguros,1,27187,,,
9,Alimec,1,37,,,
10,Almacenes Espinoza,1,023,,,
11,ANCLAFIX,1,12752,,,
12,andreval,1,#N/A,,,
13,ANIS PAN,1,12237,,,
14,AOC INGENIERIA,1,10205,,,
15,Asiauto,1,957,,,
16,AUDIASES S.A.,1,11848,,,
17,Auto Delta,1,13348,,,
18,AVANTI,1,11388,,,
19,AVS Ingenieria,1,403,,,
20,Ayala Industrial Solutions,1,27960,,,
21,Bayer,1,152,,,
22,Best PC,1,27370,,,
23,Bigcore Consulting,1,28116,,,
24,BIOGENET,1,10659,,,
25,Biopronec ,1,11710,,,
26,BRAUM MEDICAL,1,10403,,,
27,BUREAU VERITAS,1,27196,,,
28,Buslenir,1,11344,,,
29,Care Ecuador,1,13934,,,
30,Catering express,1,28192,,,
31,Centro de Autonomía Digital,1,28070,,,
32,Centro de Literatura Cristiana (CLC ECUADOR),1,27243,,,
33,CEPSA,1,4271,,,
34,CHAIDE Y CHAIDE,1,10484,,,
35,ChevyPlan,1,10292,,,
36,Chocolates Bios ,1,10285,,,
37,CNEYTON VASQUEZ S.A,1,12753,,,
38,COIMPEXA,1,10672,,,
39,Colegio Juan Pablo II,1,1466,,,
40,Colegio Martin Cerere,1,23784,,,
41,Comercial JH,1,28211,,,
42,Compuequip,1,0048,,,
43,Confiltrampec,1,258,,,
44,CONSPECCIME,1,834,,,
45,Construecuador,1,27940,,,
46,CONSULTORA DELTA MONTERO ,1,12357,,,
47,Cooperativa Andalucia,1,787,,,
48,Cornerstone,1,955,,,
49,Corporacion Publicitaria Delta,1,#N/A,,,
50,Corruempaque,1,2862,,,
51,Cyede,1,10324,,,
52,DEKORANDO,1,11984,,,
53,DIDELSA ,1,10366,,,
54,DINUSA,1,12405,,,
55,DIREC TV,1,922,,,
56,DISAROMATI S.A,1,15555,,,
57,Downstreams,1,23811,,,
58,DUQUE MATRIZ,1,13385,,,
59,EBM Ecuador,1,#N/A,,,
60,Eco Andes Travel,1,28031,,,
61,ECUAAUTO,1,10256,,,
62,Ecuador Best Tours,1,28190,,,
63,Ecuador Fortescue,1,27336,,,
64,Ecuaempaque,1,28212,,,
65,ECUAINSETEC,1,20015,,,
66,ECUASOLIDUS,1,11847,,,
67,ECUASURGICAL,1,12058,,,
68,ECUATEXSIS,1,20033,,,
69,Educar 2000,1,28007,,,
70,Electrolux,1,27221,,,
71,Erazo Constructores,1,503,,,
72,EsAcero,1,952,,,
73,ETERNIT,1,496,,,
74,FATROM,1,13337,,,
75,Ferremaxc,1,28210,,,
76,FIBRAN,1,11963,,,
77,Flexofama,1,17553,,,
78,Foreingexchange Ecuador Casa de cambios,1,28214,,,
79,FQM Ecuador,1,27990,,,
80,FUN. IGLESIA DE LA COMPAÑIA,1,11833,,,
81,Fundación Cristo de Miravalle,1,27908,,,
82,Fundacion Rotary Quito,1,12126,,,
83,Galvanorte,1,029,,,
84,Garcos,1,686,,,
85,GASOLINERA PONCIANO,1,1002,,,
86,GEDATECU S.A,1,14073,,,
87,Gestion y Gente Consultores,1,27962,,,
88,GFPharma,1,#N/A,,,
89,Glenda Jouvin,1,#N/A,,,
90,Gruentec,1,421,,,
91,Grupo el Comercio,1,17726,,,
92,GRUPO VA,1,11755,,,
93,HANSEL Y GRETEL,1,10546,,,
94,HERDOIZA CRESPO,1,27181,,,
95,Hotel Lugano,1,13956,,,
96,Ibergas,1,28023,,,
97,IDEAL ALAMBREC ,1,00351,,,
98,ILS CORPORACION,1,19702,,,
99,IMPORTADORA VEGA,1,11841,,,
100,INDUMEVER,1,10486,,,
101,INSTITUTO DE HERMANAS BETHLEMITAS,1,10755,,,
102,La casa de los Quimicos,1,11824,,,
103,laboratorio Gungonza,1,12386,,,
104,LABORATORIO SEIDLA ,1,545,,,
105,LAMOSAN,1,699,,,
106,Larscript,1,12238,,,
107,LIPEQSA,1,10223,,,
108,Marathon,1,695,,,
109,MASTERAX,1,13391,,,
110,MAXIPAN,1,10113,,,
111,MECANIZADOS VALLEJO VARGAS,1,413,,,
112,Medicamenta,1,953,,,
113,Megadatos,1,076,,,
114,MEGAELEC,1,13957,,,
115,MERCAQUIMICOS S.A.,1,11838,,,
116,MH INDUSTRIES,1,11831,,,
117,MILESTONE,1,555,,,
118,MISSION-PETROLEUM,1,11147,,,
119,Mondelez,1,13041,,,
120,MONTERO,1,27176,,,
121,MULTIANALYTICA,1,27190,,,
122,MYRCO,1,648,,,
123,Ntecuador,1,#N/A,,,
124,Orion casa de valores,1,28142,,,
125,OSCTELECOMS,1,11156,,,
126,PAN DE VIDA & PASTELERIA,1,930,,,
127,Peace Corp (Cuerpo de Paz),1,28090,,,
128,Pelati (Edison Andrade),1,27955,,,
129,Plastiexpress,1,10975,,,
130,PMJ ARQUITECTOS,1,10913,,,
131,Print Center,1,10244,,,
132,PRODUTECNICA,1,10260,,,
133,PROEMT,1,12689,,,
134,PROEQ,1,27141,,,
135,PROPHAR,1,10738,,,
136,PROTECOMPU,1,0035,,,
137,Psychomedical,1,17979,,,
138,Pumaseg,1,814,,,
139,Radio Pichincha (Pichincha Comunicaciones),1,27220,,,
140,RECORD DENTAL,1,13625,,,
141,Representaciones Metalmecanica,1,782,,,
142,Rinol Pavimenta,1,28044,,,
143,ROCALVI,1,11496,,,
144,Rosas del Cotopaxi - Exxide,1,27150,,,
145,RS ROTH,1,10615,,,
146,Sabijers,1,27252,,,
147,SAYCE,1,10813,,,
148,SCANALYTICAL,1,11616,,,
149,SCHRYVER DEL ECUADOR,1,10246,,,
150,SEAP PERFORACIONES,1,12523,,,
151,SEGUROS ALIANZA,1,11103,,,
152,SEIN,1,27316,,,
153,SEIUS ,1,11126,,,
154,SEMAICA,1,11672,,,
155,Serigen,1,#N/A,,,
156,Siati ,1,27271,,,
157,SIDERTECH,1,27157,,,
158,Sismode,1,075,,,
159,SIVASA,1,12155,,,
160,SOCIEDAD GENERAL DE AUTORES,1,#N/A,,,
161,SRA AMELIA SANCHEZ,1,10664,,,
162,Sudamericana de buses y camiones,1,28037,,,
163,Supraprocesos,1,14530,,,
164,SUVIA TOURS ,1,10638,,,
165,SYNTECO,1,10375,,,
166,SYTSA,1,27119,,,
167,Taty Boutique,1,10361,,,
168,Telalca,1,28064,,,
169,Tripoint,1,183,,,
170,UNIDAD EDUCATIVA SAN LUIS GONZAGA,1,13958,,,
171,Unidad Educativa Tomas Moro,1,27169,,,
172,Venamet,1,069,,,
173,Vitemco,1,11359,,,
174,Vitesalud (Glenda Jouvin),1,23786,,,
175,WURTH ECUADOR S.A,1,12885,,,
176,ZERMAT GROUP,1,39125,,,
177,Ajecuador,2,15914,,,
178,AUSO ITALTEL,2,27374,,,
179,Carosem,2,#N/A,,,
180,Clinica Adventista,2,27193,,,
181,Colmed,2,27347,,,
182,Cuerpo de Bomberos Antonio Ante,2,27372,,,
183,CVIMSA ECUADOR,2,27331,,,
184,Enviroland,2,749,,,
185,Fatosla,2,649,,,
186,FLOREMPAQUE,2,13858,,,
187,Glenmark,2,27369,,,
188,Hogar del niño san vicente de Paul,2,27379,,,
189,Hotel Wyndham,2,23719,,,
190,Imprenta Mariscal,2,259,,,
191,Industrias Full Cía. Ltda,2,13854,,,
192,Industrias Oleana,2,27361,,,
193,Manpower,2,27265,,,
194,Megatron,2,27335,,,
195,Primeap (Mera Pepinos y Asociados),2,808,,,
196,Santa Elena Petroleum,2,27375,,,
197,Seringen,2,23721,,,
198,Sunhospital,2,#N/A,,,
199,Tecnosuministros,2,28005,,,
200,Textil San Pedro,2,23729,,,
201,Tobe Company,2,11261,,,
202,Transshuar,2,27364,,,
203,ENETSA,3,12306,,,
204,ESCOLLANOS,3,10565,,,
205,Ganaderia Vanguardia - Hacienda Sausalitos,3,27328,,,
206,JUVENTUS,3,11671,,,
207,New Access,3,27152,,,
208,RODDOME,3,13542,,,
209,vicariato apostolico de aguarico ,3,27355,,,
210,Zaimella,3,10441,,,
211,Equivida,4,373,,,
212,Basemil,0,27931,,,
213,Coulinary Pastry School,0,27194,,,
214,La Tartalete,0,12576,,,
215,Scater,0,23730,,,
216,Payless,0,27258,,,
217,Reinspet,0,27288,,,
218,Foligrim,0,27309,,,
219,CEOFT,5,27289,,,
220,IFCE,5,26018,,,
221,INREDTEL,5,13707,,,
222,PF GROUP - POXICOAT,5,26132,,,
223,QUIMELA,5,27165,,,
224,RIMALEC,5,10402,,,
225,SINDESECUADOR S.A,5,11497,,,
226,SOCIEDAD DE MADRES SALESIANAS,5,10636,,,
227,ACCIVAL,6,27362,,,
228,Adeatel,6,28016,,,
229,Akros,6,022,,,
230,ALMACOPIO,6,27129,,,
231,Asistecom,6,27242,,,
232,Brodacorpsa,6,27307,,,
233,Calsep,6,#N/A,,,
234,Dr Francisco Mena Silva,6,27650,,,
235,Ecuagarantía,6,23785,,,
236,FIMMA,6,23783,,,
237,Gran Hotel Guayaquil,6,27974,,,
238,Grupo Telepizza,6,27363,,,
239,HIVIMAR,6,28132,,,
240,Hotel Palace,6,11306,,,
241,IIAASA CATERPILLAR,6,15159,,,
242,Labour Law SA,6,28084,,,
243,LIBCO,6,28157,,,
244,Magrebsa,6,13875,,,
245,Masteri Gentrack,6,27898,,,
246,Medecu,6,23725,,,
247,Provica,6,27911,,,
248,Sebicar,6,27256,,,
249,SENAE,6,27098,,,
250,Serca,6,27977,,,
251,Siglo XXI,6,27199,,,
252,Supralive,6,1721,,,
253,Transportes Arevalo,6,23722,,,
254,VIR OPERADOR LOGISTICO,6,20022,,,
255,INTACO,0,10653,,,
256,Integra Consultores,0,27338,,,
257,Agroprecisión,0,27341,,,
258,Alrimala,0,27240,,,
259,Aplios,0,27311,,,
260,Bcei,0,#N/A,,,
261,Blindex,0,27297,,,
262,CASTER,0,27272,,,
263,CEIEC,0,11860,,,
264,CHOCONO,0,27162,,,
265,Clínica Infes,0,27184,,,
266,Clinica Sandoval ,0,27262,,,
267,Comercial Imbabura,0,27312,,,
268,Cooperativa Transportes Union ,0,27358,,,
269,Dental Corp,0,20045,,,
270,Editorial Santillana,0,27332,,,
271,Era Solar,0,27210,,,
272,FEDEXPOR,0,10291,,,
273,Imporfiltro,0,27306,,,
274,Indutex APR,0,#N/A,,,
275,Ingesa,0,456,,,
276,Inselmed,0,27367,,,
277,ITM,0,845,,,
278,Levamak,0,27296,,,
279,MAINM,0,27279,,,
280,MEVECSA,0,27303,,,
281,MUNDOGRAFIC,0,10651,,,
282,NEGASMART,0,13351,,,
283,Numbers,0,27371,,,
284,Primus Medical,0,27313,,,
285,Quantica Express,0,12528,,,
286,Roland,0,27261,,,
287,Semed Hogar,0,27269,,,
288,SERVILIMP,0,27159,,,
289,ALSTOM,7,11135,,,
290,ARMEC CONSTRUCCIONES,7,27198,,,
291,Austrogas,7,033,,,
292,AUTOCOMERCIO ASTUDILLO,7,27223,,,
293,BALGRAN,7,13073,,,
294,Banda Vanoni,7,27888,,,
295,BURGES CIA LTDA,7,10395,,,
296,Cardoso y Asociados,7,27224,,,
297,CARTOAUSTRO,7,11818,,,
298,CASTVISE,7,10217,,,
299,CEDIA,7,27163,,,
300,Celyasa,7,12604,,,
301,CIM,7,11162,,,
302,CN7,7,20084,,,
303,Colineal,7,12472,,,
304,CONTINENTAL TIRE,7,20040,,,
305,Coop de Ahorro y Crédito Multiempresarial,7,27273,,,
306,COOPERATIVA JEP,7,10988,,,
307,CUARMUEBLES ,7,11676,,,
308,DISPACIF,7,10213,,,
309,DISTRIBUIDORA MALU,7,12154,,,
310,DUKARE,7,12569,,,
311,DURAMAS,7,13449,,,
312,ECSYAUTO S.A,7,10928,,,
313,Ejeproy,7,23723,,,
314,Everap,7,27776,,,
315,FISUM,7,10697,,,
316,FLORES DEL SUR FLORESUR,7,10742,,,
317,GEZHOUBA,7,10354,,,
318,Graiman,7,19700,,,
319,Guardia Ciudadana,7,13068,,,
320,HIDALGO E HIDALGO,7,11837,,,
321,HORMIPISOS,7,10816,,,
322,Ingeniomotors,7,13562,,,
323,INTRANS,7,10714,,,
324,JARDIN AZUAYO,7,11372,,,
325,Juan Alvarez,7,23788,,,
326,La Italiana,7,10524,,,
327,Laboratorio Cordova,7,27356,,,
328,Lacomtri,7,9993,,,
329,Libelula,7,17777,,,
330,Logimanta,7,13569,,,
331,Marcimex,7,10517,,,
332,MAXIAUTO,7,10737,,,
333,Merchan y Fontana,7,23750,,,
334,MULTIPUBLICIDAD,7,26137,,,
335,NCH Ecuador,7,28039,,,
336,NEG AUTOMOTRICES NEOHYUNDAI S.A,7,10926,,,
337,NEWTIRE S.A,7,10931,,,
338,Novacredit,7,27946,,,
339,NUTRILECHE,7,11098,,,
340,Patricio Tamayo,7,27890,,,
341,PIGGIS,7,13413,,,
342,Plasticos Rival,7,11826,,,
343,Prokliner,7,27208,,,
344,QUALITY,7,29999,,,
345,REENCAUCHADORA ANDINA,7,10934,,,
346,Rinollanta,7,27684,,,
347,RJV CIA LTDA,7,10418,,,
348,SERVITOTAL ,7,12429,,,
349,SINDICATO DE CHOFERES DE AZUAY,7,#N/A,,SINDICATO CHOFERES,27183
350,TAPITEX,7,11159,,,
351,TELCONET,7,10299,,,
352,TERMOVENT,7,15168,,,
353,Transportes Nataqui,7,27334,,,
354,Vita Vidrios,7,27777,,,
355,ADELCA,8,102,,,
356,ALPHA IMAGEN,8,2644,,,
357,ANDES KINKUNA,8,13778,,,
358,Aprofe,8,27927,,,
359,ARCOLANDS,8,12075,,,
360,BANCO FINCA,8,0050,,,
361,Baxter,8,675,,,
362,BOOMMKT,8,11667,,,
363,CCI,8,074,,,
364,CELLOPTI,8,11612,,,
365,Cemoplaf,8,07,,,
366,CIDEGEN,8,11822,,,
367,Clinica Internacional,8,10943,,,
368,Clinica Nuestra Sra de Guadalupe,8,416,,,
369,Clinica U Navarra,8,27382,,,
370,Club de Leones,8,185,,,
371,Coris - Seguros del Pichincha,8,192,,,
372,CORPORACION GPF,8,#N/A,,,
373,CRANSA,8,669,,,
374,DON DIEGO,8,20052,,,
375,DYGOIL,8,873,,,
376,ENERGYPALMA S.A,8,13567,,,
377,Equipo Centro Biblíco Verbo Divino,8,#N/A,,,
378,Genser Power,8,356,,,
379,Halliburton,8,295,,,
380,HANRINE ECUADORIAN,8,12448,,,
381,ITVAL,8,11554,,,
382,JURIS ,8,654,,,
383,Kywi,8,299,,,
384,La Casa,8,938,,,
385,Milenium,8,20137,,,
386,Nabors,8,395,,,
387,Nefrocontrol,8,447,,,
388,NEW VISION SCHOOL,8,10433,,,
389,ORTEGA Y GASSET ,8,10311,,,
390,Pacifipetrol,8,7894,,,
391,Pasteurizadora Quito,8,76,,,
392,PETREX,8,847,,,
393,PETROBAS,8,499,,,
394,Preciser,8,789,,,
395,Provida,8,23724,,,
396,Proyectos Integrales,8,312,,,
397,SCHWARZKOPF,8,566,,,
398,Secorsa,8,27892,,,
399,SHOPPINGMANAGEMENTS,8,771,,,
400,SINOPEC ,8,613,,,
401,Super Paco uio,8,706,,,
402,Tecnasa,8,27251,,,
403,THEBUTHERY,8,27155,,,
404,UDSS,8,717,,,
405,Manuelita Saenz Esc.,8,86,,,
406,UNACEM,8,13776,,,
407,UNIR,8,17727,,,
408,URRESTA - AVILA (CENTRO MEDICO),8,20080,,,
409,Valvulas del Pacifico,8,970,,,
410,Vepica,8,27344,,,
411,AIDA MONTOYA E HIJAS,0,10125,,,
412,CARLISNACKS,0,10549,,,
413,CISLATAM,0,2472,,,
414,DESCA,0,11719,,,
415,DIMALVID,0,10749,,,
416,DINEDICIONES,0,11555,,,
417,ENVAPRESS,0,10634,,,
418,FARMAPACK,0,10654,,,
419,FUNDACION PEREZ PALLARES,0,16509,,,
420,GRUPO DEL HIERRO,0,10650,,,
421,ICAPEB,0,11236,,,
422,Interoc S.A,0,239,,,
423,Leadcom,0,082,,,
424,MAJANE,0,12679,,,
425,MITSUBISHI  CORP 2017,0,23141,,,
426,SAN FRANCISCO FOODSERVICE,0,10775,,,
427,SICON,0,13481,,,
428,SOGUAR S.A,0,11708,,,
429,TAKEDA,0,11096,,,
430,TE UNO,0,10286,,,
431,TRANSCOCEM,0,10763,,,
432,CENEPAMIL,9,28129,,,
433,COULINARY TRAINER AND PASTRY SCHOOL,9,27194,,,
434,Crecermed,9,11962,,,
435,DIGITEC S.A,9,10231,,,
436,Ekium,9,27206,,,
437,CAJA CENTRAL FINANCOOP,9,28184,,,
438,INMERA,9,28067,,,
439,Polipapeles,9,28182,,,
440,PROCESOS MECANICOS,9,28160,,,
441,VIRTUALIT,9,20028,,,
442,180 Grados,10,27378,,,
443,ACEIN,10,13648,,,
444,Aglomerados Cotopaxi,10,#N/A,,,
445,Agricola San Andres,10,736,,,
446,AHCORP GYE,10,457,,,
447,AHCORP UIO,10,738,,,
448,ALL SEA MEDICAL,10,23794,,,
449,AMC ECUADOR,10,10580,,,
450,ANA LUCIA ITURRALDE,10,14017,,,
451,ARS - PERUZZI,10,12618,,,
452,Asercons,10,#N/A,,,
453,Automotores Continental,10,793,,,
454,BANCO CENTRAL DEL ECUADOR,10,28148,,,
455,Banco Pacifico,10,516,,,
456,Bebe Mundo,10,27248,,,
457,BIG PRINT,10,27121,,,
458,BLUESTEELCORP,10,11663,,,
459,BOEHRINGER,10,535,,,
460,CUERPO DE BOMBEROS QUITO,10,19666,,,
461,CARAVELA,10,27357,,,
462,CASABACA,10,451,,,
463,CAVES S.A,10,906,,,
464,CELEC HIDRONACION,10,12477,,,
465,Centi,10,27247,,,
466,Centro Comerical el Bosque,10,13249,,,
467,CHILDREN INTERNACIONAL,10,10437,,,
468,CNEL,10,13153,,,
469,CNT BABAHOYO,10,570,,,
470,CNT BAHIA,10,567,,,
471,CNT BOLIVAR,10,582,,,
472,CNT CAÑAR,10,581,,,
473,CNT CHIMBORAZO,10,590,,,
474,CNT CHONE,10,561,,,
475,CNT COTOPAXI,10,587,,,
476,CNT CUENCA,10,580,,,
477,CNT ESMERALDAS,10,565,,,
478,CNT GALAPAGOS,10,850,,,
479,CNT GUAYAQUIL,10,615,,,
480,CNT IMBABURA,10,593,,,
481,CNT JIPIJAPA,10,10761,,,
482,CNT LOJA,10,578,,,
483,CNT MACHALA,10,576,,,
484,CNT MANTA,10,560,,,
485,CNT MILAGRO,10,10712,,,
486,CNT MORONA SANTIAGO,10,10720,,,
487,CNT NAPO,10,10648,,,
488,CNT ORELLANA,10,10649,,,
489,CNT ORIENTE,10,562,,,
490,CNT PASTAZA,10,10690,,,
491,CNT PLAYAS,10,10713,,,
492,CNT PORTOVIEJO,10,557,,,
493,CNT PRE Y POSTOCUPACIONALES 2016,10,5891,,,
494,CNT QUEVEDO,10,571,,,
495,CNT QUITO,10,554,,,
496,CNT SALINAS,10,569,,,
497,CNT SANTO DOMINGO,10,564,,,
498,CNT Sucumbios,10,452,,,
499,CNT TULCAN,10,594,,,
500,CNT TUNGURAHUA,10,588,,,
501,CNT ZAMORA CHINCHIPE,10,10722,,,
502,Coca Codo Sinclair,10,468,,,
503,Colegio Aleman,10,11498,,,
504,COLEGIO AMERICANO 2015,10,11192,,,
505,COLEGIO BRITANICO INTERNACIONAL,10,12016,,,
506,COLEGIO LA CONDAMINE,10,11175,,,
507,COLEGIO LETORT,10,0080,,,
508,Colegio San Gabriel,10,27,,,
509,COM. NUEVA TENDENCIA NEWTNED,10,11853,,,
510,Congas,10,27339,,,
511,CONQUITO,10,10740,,,
512,CONSORCIO SHUSHUFINDI,10,6974,,,
513,CONVERSA,10,15167,,,
514,COOPERATIVA POLICIA NACIONAL,10,27241,,,
515,Coop Juan de Salinas,10,28118,,,
516,Coop Oscus,10,034,,,
517,COOP. PABLO MUÑOZ VEGA,10,27342,,,
518,Copa Airlines,10,11114,,,
519,Cordistasa,10,27292,,,
520,CORPORACION ADBRAND,10,11852,,,
521,CORPORACIÓN SOL JUSTICIA,10,27268,,,
522,CR CONSTRUCTORA,10,27156,,,
523,Despegar,10,20091,,,
524,DHL,10,467,,,
525,DIEBOLD,10,10308,,,
526,DIMUNE,10,23143,,,
527,DISTRIFUEL CIA. LTDA.,10,23789,,,
528,DRILLSOIL S.A.,10,12755,,,
529,DSM NUTRITIONAL PRODUCTS,10,890,,,
530,ECOFROZ,10,10739,,,
531,ECUASISTENCIA S.A.,10,28051,,,
532,ECUAFOXSA,10,10922,,,
533,EDITORIAL TAQUINA,10,27145,,,
534,EGAS TAMAYO & ASOCIADOS,10,27227,,,
535,ELECDOR,10,11681,,,
536,ELECTROCOMREP,10,10294,,,
537,Electroguayas,10,827,,,
538,EMASEO,10,012,,,
539,EMGIRS-EP,10,10391,,,
540,EMPAQPLAST,10,12205,,,
541,ENAMI EP028,10,10707,,,
542,ENAMI EP029 2015,10,10708,,,
543,ENERJUBONES,10,11617,,,
544,EP METRO QUITO,10,10769,,,
545,EPMAPS,10,9341,,,
546,EPMSA,10,10706,,,
547,EPMTP,10,20021,,,
548,EQYSE,10,27337,,,
549,ESCUELA POLITECNICA NACIONAL,10,12128,,,
550,EXPLORACIONES MINERAS ANDINAS SA,10,27202,,,
551,EXPLORACIONES NOVOMINING 2015,10,12093,,,
552,Expopetroil,10,10704,,,
553,LA FABRIL FAME,10,10373,,,
554,Falcon Seguridad,10,11251,,,
555,Favalle,10,27263,,,
556,FERREMOTORS,10,13647,,,
557,Fideval,10,27153,,,
558,FLACSO,10,10936,,,
559,FLEXIPLAST,10,27124,,,
560,FORTO,10,20221,,,
561,FOSFORERA ECUATORIANA,10,12478,,,
562,FRANKS INTERNACIONAL,10,620,,,
563,FULLDATA,10,11304,,,
564,ABEI HOGAR ADULTOS,10,27245,,,
565,Fundacion Cornelia Polit,10,27266,,,
566,GAD Ibarra,10,27170,,,
567,Garlands,10,11258,,,
568,GEOCE TRADE,10,27182,,,
569,GEOFORCE,10,10609,,,
570,Global Quality,10,12857,,,
571,GP AJUSTADORES,10,38723,,,
572,Grunenthal,10,242,,,
573,GRUPO BERLIN BATERIAS BOSCH,10,10652,,,
574,GRUPO GRANDES,10,10356,,,
575,GRUPO MEGA,10,11365,,,
576,GTM,10,23218,,,
577,HIDROAGOYAN,10,11684,,,
578,HIDROPAUTE,10,10255,,,
579,HORMIGONES DEL VALLE,10,27319,,,
580,Hotel Alameda 2015,10,12422,,,
581,Hotel Finlandia,10,27125,,,
582,Hotel Marriott,10,301,,,
583,HUSQVARNA ECUADOR S.A,10,12006,,,
584,ICCAP ECUADOR,10,27343,,,
585,ILSA,10,10334,,,
586,IMPAKT Arquitectura & Construcción,10,5855,,,
587,IMVAB,10,20019,,,
588,Inexa,10,040,,,
589,INGEDEC,10,13859,,,
590,INMOBILIARIA BMV,10,27352,,,
591,INTRAFUEL CIA. LTDA.,10,23790,,,
592,ISAAC NEWTON,10,714,,,
593,ITKSTRUCTURES,10,3705,,,
594,ITQM,10,20018,,,
595,JR Electric,10,27377,,,
596,JUBILADOS BANCO CENTRAL,10,20067,,,
597,Jurado y Fiallos,10,13363,,,
598,KAMANA,10,6975,,,
599,KIREI CENTER CIA. LTDA,10,11665,,,
600,KOICA,10,367,,,
601,KRUGER CORPORATION,10,10502,,,
602,KUENE-NAGUEL,10,10415,,,
603,LAI LAI,10,11832,,,
604,LAMBDA-TEC CIA. LTDA.,10,23710,,,
605,Land Clean,10,12985,,,
606,Latina de Seguros,10,23014,,,
607,Latincopiers,10,39123,,,
608,LLANTAMATIC,10,25511,,,
609,Lundinggold,10,10627,,,
610,MACROCOMERCIO,10,11877,,,
611,Magallanes Petroleum Service,10,27238,,,
612,MANTE,10,13649,,,
613,Marcseal,10,10425,,,
614,Marquin Flowers,10,26065,,,
615,Medevac Serv,10,13063,,,
616,METROPOLITAN TOURING,10,897,,,
617,MINERA MARISCAL SUCRE,10,0051,,,
618,Mishan,10,336,,,
619,MUNICIPIO DAULE,10,1596,,,
620,Municipio de Rumiñahui,10,10247,,,
621,NAFTAECUADOR CIA. LTDA.,10,23791,,,
622,NARANJO LOPEZ CONSTRUCTORES,10,10736,,,
623,Noxbio,10,27373,,,
624,NUNA FOODS,10,27952,,,
625,OIM,10,529,,,
626,Onlineberatung,10,27961,,,
627,Parque Santo,10,013,,,
628,PDVSA,10,20035,,,
629,EP Petroecuador,10,818,,,
630,PETROPLATINUM CIA. LTDA.,10,23792,,,
631,Petrosud,10,414,,,
632,PFIZER,10,994,,,
633,POMME INTERNACIONAL,10,13084,,,
634,PYRCO ECUADOR,10,27143,,,
635,QUITO TURISMO,10,13052,,,
636,RIELTEC,10,2711,,,
637,RVR TRANSFORMADORES,10,20011,,,
638,SAEX SERVICIO,10,29321,,,
639,Saltercom,10,13627,,,
640,"San Camilo, Laboratorio",10,396,,,
641,SANDRY,10,27366,,,
642,SANFER BUSSIE ECUADOR S.A,10,20023,,,
643,SANTOS CMI,10,655,,,
644,Saxon,10,12946,,,
645,SCHLUMBERGER,10,10675,,,
646,SECURE WRAP,10,13841,,,
647,Seguros Oriente,10,683,,,
648,Sentinel,10,11992,,,
649,Serinse,10,27123,,,
650,Sftransit,10,13062,,,
651,SHAYA,10,6973,,,
652,SIOTEK,10,27126,,,
653,SKY GROUP,10,11662,,,
654,SOCIEDAD DIECTORA COLE,10,27267,,,
655,SPORTV,10,11836,,,
656,SSO ECUADOR,10,12579,,,
657,SUNSHINEAT CIA LTDA,10,20083,,,
658,TALENTOPSA,10,11851,,,
659,TERRE DE HOMME,10,28201,,,
660,TECNANDINA,10,931,,,
661,TECNIPRECISION,10,27168,,,
662,TECNOLPET,10,52127,,,
663,TECNOVOLADURAS,10,12446,,,
664,Tecsinfo,10,27359,,,
665,TELEACCESS,10,13071,,,
666,Termoesmeraldas,10,405,,,
667,TERMOMANABI,10,27368,,,
668,TERMOPICHINCHA,10,70,,,
669,TEVIASA,10,20032,,,
670,Textiles Padilla,10,038,,,
671,ThoughtWorks,10,88,,,
672,TIRESPLUS,10,25512,,,
673,TITELINE,10,13855,,,
674,TIW,10,11164,,,
675,Toyota,10,10490,,,
676,Transelectric Guayas,10,684,,,
677,Transelectric Quito,10,169,,,
678,TRANSSDAVSA,10,27274,,,
679,Truckfuel,10,27838,,,
680,UNIVERSIDAD INTERNACIONAL DEL ECUADOR,10,918,,,
681,Varco,10,19662,,,
682,VASERUM,10,10342,,,
683,VICOMBUSTIBLES CIA. LTDA.,10,23793,,,
684,VICUNHA ECUADOR,10,11619,,,
685,Viva Air,10,27257,,,
686,WAYRA ENERGY,10,12079,,,
687,WIRELESSOFT,10,27114,,,
688,XIAN ELECTRIC,10,23135,,,
689,ZOETIS,10,10257,,,
690,ZONA TRADE,10,10460,,,
691,COLEGIO DE INGENIEROS CIVILES DE PICHINC,0,27326,,,
692,Construroute,0,27340,,,
693,Multitecnologia VYV,0,#N/A,,,
694,ADC & HAS AEROPUERTO 2014,11,11930,,,
695,AIG METROPOLITANA,11,12677,,,
696,ALPINA,11,937,,,
697,Avianca,11,200,,,
698,Banco Pichincha,11,995,,,
699,BANCO PICHINCHA GUYAQUIL,11,914,,,
700,Belia,11,28227,,,
701,BOPP DEL ECUADOR,11,925,,,
702,Child Found,11,27222,,,
703,Coca Cola,11,425,,,
704,Comercial Quiroz,11,27346,,,
705,CONFIAMED,11,11327,,,
706,Ecuajugos,11,0049,,,
707,Inacorp,11,0040,,,
708,INDUSTRIA ALES,11,11363,,,
709,Latina de Seguros,11,23014,,,
710,Levapan,11,043,,,
711,Liberty Seguros,11,11976,,,
712,MERCK C.A,11,11504,,,
713,Nestle,11,735,,,
714,SEMERCA / PALIG,11,20048,,,
715,GLAXO PALIG 2019,11,27300,,,
716,PASON,11,17811,,,
717,Petróleos y Servicios PYS,11,#N/A,,,
718,Philip Morris,11,10605,,,
719,Quiport,11,19805,,,
720,Roche,11,829,,,
721,SBA TORRES EC 2018,11,27186,,,
722,Seguros Pichincha Ocupacional,11,943,,,
723,Seguros Pichincha Preocupacional,11,003,,,
724,Seguros del Pichincha Audiometría,11,27270,,,
725,CAMPAÑA SEGUROS PICHINCHA,11,10677,,,
726,Seguros Unidos,11,17019,,,
727,Sinpet S.A,11,382,,,
728,TECNISEGUROS/TORRESEC,11,13368,,,
729,Telefonica,11,693,,,
730,Trans Pablo Jaramillo,11,3883,,,
731,U. POLITECNICA SALESIANA,11,12313,,,
732,UNILIMPIO,11,921,,,
733,UNIVISA,11,909,,,
734,Yanbal,11,479,,,
735,Expertia Corporativa,12,23732,,,
736,FARM TRADING,12,27968,,,
737,GIMPROMED,12,10665,,,
738,Gutisfarmaceutica,12,13411,,,
739,JTPRIME TRANSPORT,12,11222,,,
740,La Peinture,12,27209,,,
741,OG-RECICLADORES,12,1872,,,
742,OVH,12,27918,,,
743,TERRIGENO GOLD MINE,12,20041,,,
744,Tracdipartes,12,28137,,,
745,VERYGLOBE CIA. LTDA.,12,10774,,,
746,Yepez Murgueito,12,#N/A,,,
747,ALAS PARA EL AGRO ALPAGRO,0,10631,,,
748,Almesa,0,670,,,
749,ANTONIO PINO YCAZA,0,11379,,,
750,Bco Guayaquil,0,211,,,
751,CARGILL,0,11723,,,
752,Cedal,0,830,,,
753,CHEF EXPRESS,0,13343,,,
754,CHINA INTERNATIONAL WATER & ELECTRIC,0,38722,,,
755,CLEAN STAR,0,11754,,,
756,COBEFEC,0,10306,,,
757,Disan,0,307,,,
758,Disma,0,949,,,
759,DUPOCSA,0,#N/A,,,
760,ECUADPREMEX,0,10657,,,
761,ECUAPATRIA,0,#N/A,,,
762,ELSYSTEC S.A,0,10584,,,
763,EROLCORP S.A.,0,10692,,,
764,FADESA,0,10494,,,
765,FAES FARMA S.A.,0,10691,,,
766,FARLETZA,0,13360,,,
767,FMA AGENCIA DE ADUANAS,0,70054,,,
768,FP- SOLUTIONS,0,10662,,,
769,FRANCO SEEMP,0,18809,,,
770,Galapesca,0,13489,,,
771,GRUPO A&B,0,10409,,,
772,GRUPO TORRES & TORRES,0,10687,,,
773,Grupo Vilaseca,0,13156,,,
774,Guayatuna,0,13049,,,
775,INBALNOR - VITAPRO,0,23019,,,
776,INMOMARIUXI,0,10547,,,
777,IPSOMARY S.A,0,20010,,,
778,Ivan Bohman,0,368,,,
779,JARDINES LA ESPERANZA,0,11028,,,
780,LAAR SEGURIDAD,0,10734,,,
781,LABORATORIOS GM 2014,0,10429,,,
782,MAGREB S.A,0,13875,,,
783,MAQUISUP,0,10571,,,
784,Mavesa,0,747,,,
785,Mundo Sano Multiplgas,0,12372,,,
786,Municipio de Guayaquil,0,12908,,,
787,PARQUE DE LA PAZ,0,10957,,,
788,PINTUCO,0,10499,,,
789,PLASTICOS TANG,0,13484,,,
790,PRODUCCION DE EVENTOS 911,0,11835,,,
791,PRODUMAR,0,12094,,,
792,PROEXPO,0,10378,,,
793,PROLACHIV,0,#N/A,,,
794,QROMA,0,10635,,,
795,RISQUE,0,#N/A,,,
796,ROOFTEC 2016,0,#N/A,,,
797,SANMINDEC,0,13054,,,
798,Seguplast,0,12455,,,
799,Senefelder,0,10984,,,
800,SERINDEC,0,#N/A,,,
801,SERVIGRUP S.A,0,11007,,,
802,SYNERGY,0,13371,,,
803,TECOPESCA,0,10776,,,
804,TESALIA CBC ECUADOR,0,0053,,,
805,THURLEIGH DISTRIBUTORS,0,27147,,,
806,TOLEPU,0,#N/A,,,
807,TOTAL TEK,0,11834,,,
808,TOYOCOSTA,0,27136,,,
809,TV Futuro,0,12889,,,
810,VAZ SEGUROS,0,10595,,,
811,VELAS LUZ DE AMERICA,0,13236,,,
812,Wall Street English,0,10701,,,
813,Aditec,0,392,,,
814,AHSE PLUS,0,10810,,,
815,Brenntag,0,769,,,
816,CONTROLVIEW S.A.,0,10770,,,
817,CORPBOY,0,11099,,,
818,CROWN DEL ECUADOR,0,11009,,,
819,Dr Pie,0,11618,,,
820,ECOMTRADING,0,13620,,,
821,GRULICENTER S.A.,0,17723,,,
822,IMETECO,0,10251,,,
823,INDUSTRIAL SUCRE,0,#N/A,,,
824,MAMUT ANDINO C.A,0,11202,,,
825,PLASTRO S.A,0,13488,,,
826,RIPCON CIV,0,888,,,
827,SabroStar Fruit Company,0,19665,,,
828,Sumesa,0,030,,,
829,TECNICENTRO CHONILLO,0,11345,,,
830,Conmedical,0,294,,,
831,Abrus,0,946,,,
832,ACADEMIA COTOPAXI,0,27166,,,
833,AGP Soluciones,0,10564,,,
834,AMBULANCIAS SAN FRANCISCO,0,10732,,,
835,ARCLAD,0,10637,,,
836,ASRIT / RTM INTERNACIONAL,0,11858,,,
837,BOTICAS UNIDAS DEL ECUADOR,0,14535,,,
838,BRIGHTCELL,0,27120,,,
839,Camara de comercio  de Quito,0,17161,,,
840,Che George Service,0,27192,,,
841,CLINICA ODONTOLOGICA R.D,0,14529,,,
842,CODIM,0,53001,,,
843,COMERCIAL YOLANDA S,0,10241,,,
844,Contract,0,2863,,,
845,CORDIALSA,0,10593,,,
846,Corporacion Logistica Integral,0,423,,,
847,Cuerpo de Seguridad Privada,0,10532,,,
848,DAILYWORK,0,10633,,,
849,DIDECO,0,17555,,,
850,DINFORSYSMEGA S.A.,0,11846,,,
851,DURAGAS,0,10981,,,
852,ECUAGESA,0,27235,,,
853,EL DORARO RESTAURANT,0,12708,,,
854,ELECTRICAL SIGHT,0,27118,,,
855,EMI ALIANZA,0,27239,,,
856,FAST GOOD SERVICE,0,#N/A,,,
857,Fenpidec,0,10506,,,
858,FINAL PEST,0,4233,,,
859,Fundacion San Jose de Jerusalen,0,#N/A,,,
860,GEO MIN GOLD,0,27294,,,
861,Global Support,0,12658,,,
862,Gourmet Food Services,0,#N/A,,,
863,GRUAS CORSA,0,10265,,,
864,GRUPO CFC,0,20034,,,
865,Grupo Hanaska,0,12359,,,
866,GYRODATA,0,913,,,
867,HAVELLS SYLVANIA,0,20008,,,
868,HELADERIA KEDELY,0,10812,,,
869,HENTEL,0,27127,,,
870,INFORC ECUADOR,0,27158,,,
871,INTERQUIMEC,0,10815,,,
872,JACIS CATERING SERVICES,0,13234,,,
873,Kieme,0,27246,,,
874,Level 3,0,061,,,
875,LOXODONTA,0,2475,,,
876,ESCUELA COSMETOLOGIA MAJIREL,0,20027,,,
877,MAYORDENT,0,20053,,,
878,Mederi,0,11844,,,
879,Medifarma,0,0032,,,
880,MOTOROLA SOLUTIONS,0,11850,,,
881,New Yorker,0,11494,,,
882,NOTARIA 76,0,20006,,,
883,NOTARIA XII,0,11849,,,
884,PLUSLOGISTIC,0,10505,,,
885,PMEC - REPSOL,0,20222,,,
886,PROCOPET S.A,0,647,,,
887,PRODONTOMED,0,20029,,,
888,Produplan,0,763,,,
889,Promostock,0,27301,,,
890,QUALIPHARM,0,11325,,,
891,REPRESENTACIONES ACAZA,0,11669,,,
892,RICAURTE GUARDERAS & ASOCIADOS,0,12089,,,
893,SERCALVE,0,13526,,,
894,STUDIO NOA,0,13255,,,
895,TECNIDENT,0,10483,,,
896,Telecomunicaciones Jahen,0,27189,,,
897,Transportes ARV,0,135,,,
898,Villarda Textil,0,27276,,,
899,WELLSCOM,0,13393,,,
900,Y y T Redes,0,27201,,,
901,ARCO SERVICE,13,28155,,,
902,Colegio Eufrasia,13,20001,,,
903,Columbec,13,214,,,
904,Construcciones Kilo,13,#N/A,,,
905,DAVINCIROSES,13,27237,,,
906,Emsoca,13,#N/A,,,
907,FARMACID,13,13622,,,
908,Ferrero del Ecuador,13,11683,,,
909,FLEXNET,13,13374,,,
910,Compañía Civil Gasolinera Carretas,13,13586,,,
911,Imetel,13,284,,,
912,Indexpubs,13,27899,,,
913,Jaboneria Wilson,13,12247,,,
914,Life,13,289,,,
915,Litecomex,13,23713,,,
916,PALCARE,13,27255,,,
917,PROCTER Y GAMBLE,13,28017,,,
918,Proindutep,13,#N/A,,,
919,SERVITECNI,13,646,,,
920,BRIGHTSTAR,13,27217,,,
921,SUPER FOODS ECUADOR,13,14079,,,
922,Termopack,13,10413,,,
923,Transportes Ocaña,13,501,,,
924,Transportes San Carlos,13,27975,,,
925,ALVISEPRO SEGURIDAD,14,28197,,,
926,Aqualogic,14,28128,,,
927,CAFRACE,14,28080,,,
928,CEJAS DESING,14,28098,,,
929,UE LA DOLOROSA,14,28004,,,
930,Comercial LNA,14,#N/A,,,
931,Cooperativa pequeña empresa de Pastaza,14,#N/A,,,
932,CORONEL CHAVEZ,14,28041,,,
933,DKTerra,14,27253,,,
934,Ecapro,14,981,,,
935,ESCUELA TECNICA DE CONDUCCION ESCUT,14,28159,,,
936,Factor Laboral,14,28100,,,
937,Global Chem,14,748,,,
938,IMPORTADORA PAMERVAL,14,28208,,,
939,INSEPET CIA. LTDA.,14,27287,,,
940,SUNCHEMICAL,14,441,,,
941,Unidad Educativa JAHIBE,14,28012,,,
942,VERDE Y CARBON,14,12686,,,
943,AIRPROTEK S.A.,0,11235,,,
944,ALDIA LOGISTICA,0,11515,,,
945,Aseguradora del Sur,0,979,,,
946,ASPEN PHARMA,0,15912,,,
947,Auto Fenix,0,065,,,
948,BYS Performance,0,10474,,,
949,CEDETEC S.A,0,10450,,,
950,IESS CEFAVIS,0,663,,,
951,CELCO,0,10479,,,
952,Colegio San Francisco de Sales,0,10709,,,
953,EMBATUB S.A.,0,27200,,,
954,ERICSSON,0,13552,,,
955,FUNDACION OPERACIÓN ECUADOR,0,10992,,,
956,GENMEDIS,0,084,,,
957,Hogar Geriatrico Plenitud,0,161,,,
958,KLUANE DRILING,0,10710,,,
959,MEDILABOR,0,10302,,,
960,MSD,0,935,,,
961,Nilotex,0,016,,,
962,Poligrafica,0,10508,,,
963,QUIMICOLOURS,0,10353,,,
964,SENAPRO,0,0292,,,
965,Sisca Consulting,0,740,,,
966,Worlding,0,12447,,,
967,AUTOMATION SOLUTIONS ECUADOR,0,636,,,
968,Budget,0,13555,,,
969,ECONOMISA,0,20058,,,
970,ECUASERVOIL,0,11350,,,
971,ESYCMET,0,107,,,
972,Franz Viegener,0,973,,,
973,INVERNEG,0,20007,,,
974,IRISGLOBAL,0,11082,,,
975,ISASIC,0,10723,,,
976,JC CONSTRUCCIONES,0,12785,,,
977,OLIO JOYA,0,10808,,,
978,PREMIUM LOGISTICS,0,10748,,,
979,PRODUBEL,0,10793,,,
980,TOCARVI,0,13589,,,
981,VITA BEAUTY,0,20024,,,
982,DOMINTEK S.A.,15,28338,,,